{
  "iisSettings": {
    "windowsAuthentication": false,
    "anonymousAuthentication": true,
    "iis": {
      "applicationUrl": "http://localhost/WsApi",
      "sslPort": 0
    },
    "iisExpress": {
      "applicationUrl": "http://localhost:64052",
      "sslPort": 44346
    }
  },
  "profiles": {
    "_1.WsApi": {
      "commandName": "IIS",
      "launchBrowser": true,
      "launchUrl": "http://localhost/WsApi/swagger",
      "environmentVariables": {
        "ASPNETCORE_ENVIRONMENT": "Development"
      },
      //"applicationUrl": "https://localhost:5001;http://localhost:5000",
      "applicationUrl": "http://localhost/WsApi"
    }
  }
}